%YAML 1.1
%TAG !u! tag:unity3d.com,2011:
--- !u!1 &2945903225281667281
GameObject:
  m_ObjectHideFlags: 0
  m_CorrespondingSourceObject: {fileID: 0}
  m_PrefabInstance: {fileID: 0}
  m_PrefabAsset: {fileID: 0}
  serializedVersion: 6
  m_Component:
  - component: {fileID: 842742613952638855}
  - component: {fileID: 1902385614940654550}
  - component: {fileID: 3413690177640208474}
  m_Layer: 0
  m_Name: Layer1
  m_TagString: Untagged
  m_Icon: {fileID: 0}
  m_NavMeshLayer: 0
  m_StaticEditorFlags: 0
  m_IsActive: 1
--- !u!4 &842742613952638855
Transform:
  m_ObjectHideFlags: 0
  m_CorrespondingSourceObject: {fileID: 0}
  m_PrefabInstance: {fileID: 0}
  m_PrefabAsset: {fileID: 0}
  m_GameObject: {fileID: 2945903225281667281}
  m_LocalRotation: {x: -0, y: -0, z: -0, w: 1}
  m_LocalPosition: {x: 0, y: 0, z: 0}
  m_LocalScale: {x: 1, y: 1, z: 1}
  m_Children: []
  m_Father: {fileID: 6343147746561904096}
  m_RootOrder: 0
  m_LocalEulerAnglesHint: {x: 0, y: 0, z: 0}
--- !u!1839735485 &1902385614940654550
Tilemap:
  m_ObjectHideFlags: 0
  m_CorrespondingSourceObject: {fileID: 0}
  m_PrefabInstance: {fileID: 0}
  m_PrefabAsset: {fileID: 0}
  m_GameObject: {fileID: 2945903225281667281}
  m_Enabled: 1
  m_Tiles:
  - first: {x: -2, y: -2, z: 0}
    second:
      serializedVersion: 2
      m_TileIndex: 16
      m_TileSpriteIndex: 16
      m_TileMatrixIndex: 0
      m_TileColorIndex: 0
      m_TileObjectToInstantiateIndex: 65535
      dummyAlignment: 0
      m_AllTileFlags: 1073741825
  - first: {x: -1, y: -2, z: 0}
    second:
      serializedVersion: 2
      m_TileIndex: 17
      m_TileSpriteIndex: 17
      m_TileMatrixIndex: 0
      m_TileColorIndex: 0
      m_TileObjectToInstantiateIndex: 65535
      dummyAlignment: 0
      m_AllTileFlags: 1073741825
  - first: {x: 0, y: -2, z: 0}
    second:
      serializedVersion: 2
      m_TileIndex: 18
      m_TileSpriteIndex: 18
      m_TileMatrixIndex: 0
      m_TileColorIndex: 0
      m_TileObjectToInstantiateIndex: 65535
      dummyAlignment: 0
      m_AllTileFlags: 1073741825
  - first: {x: 1, y: -2, z: 0}
    second:
      serializedVersion: 2
      m_TileIndex: 19
      m_TileSpriteIndex: 19
      m_TileMatrixIndex: 0
      m_TileColorIndex: 0
      m_TileObjectToInstantiateIndex: 65535
      dummyAlignment: 0
      m_AllTileFlags: 1073741825
  - first: {x: 3, y: -2, z: 0}
    second:
      serializedVersion: 2
      m_TileIndex: 20
      m_TileSpriteIndex: 20
      m_TileMatrixIndex: 0
      m_TileColorIndex: 0
      m_TileObjectToInstantiateIndex: 65535
      dummyAlignment: 0
      m_AllTileFlags: 1073741825
  - first: {x: -2, y: -1, z: 0}
    second:
      serializedVersion: 2
      m_TileIndex: 12
      m_TileSpriteIndex: 12
      m_TileMatrixIndex: 0
      m_TileColorIndex: 0
      m_TileObjectToInstantiateIndex: 65535
      dummyAlignment: 0
      m_AllTileFlags: 1073741825
  - first: {x: -1, y: -1, z: 0}
    second:
      serializedVersion: 2
      m_TileIndex: 13
      m_TileSpriteIndex: 13
      m_TileMatrixIndex: 0
      m_TileColorIndex: 0
      m_TileObjectToInstantiateIndex: 65535
      dummyAlignment: 0
      m_AllTileFlags: 1073741825
  - first: {x: 0, y: -1, z: 0}
    second:
      serializedVersion: 2
      m_TileIndex: 14
      m_TileSpriteIndex: 14
      m_TileMatrixIndex: 0
      m_TileColorIndex: 0
      m_TileObjectToInstantiateIndex: 65535
      dummyAlignment: 0
      m_AllTileFlags: 1073741825
  - first: {x: 1, y: -1, z: 0}
    second:
      serializedVersion: 2
      m_TileIndex: 15
      m_TileSpriteIndex: 15
      m_TileMatrixIndex: 0
      m_TileColorIndex: 0
      m_TileObjectToInstantiateIndex: 65535
      dummyAlignment: 0
      m_AllTileFlags: 1073741825
  - first: {x: -2, y: 0, z: 0}
    second:
      serializedVersion: 2
      m_TileIndex: 6
      m_TileSpriteIndex: 6
      m_TileMatrixIndex: 0
      m_TileColorIndex: 0
      m_TileObjectToInstantiateIndex: 65535
      dummyAlignment: 0
      m_AllTileFlags: 1073741825
  - first: {x: -1, y: 0, z: 0}
    second:
      serializedVersion: 2
      m_TileIndex: 7
      m_TileSpriteIndex: 7
      m_TileMatrixIndex: 0
      m_TileColorIndex: 0
      m_TileObjectToInstantiateIndex: 65535
      dummyAlignment: 0
      m_AllTileFlags: 1073741825
  - first: {x: 0, y: 0, z: 0}
    second:
      serializedVersion: 2
      m_TileIndex: 8
      m_TileSpriteIndex: 8
      m_TileMatrixIndex: 0
      m_TileColorIndex: 0
      m_TileObjectToInstantiateIndex: 65535
      dummyAlignment: 0
      m_AllTileFlags: 1073741825
  - first: {x: 1, y: 0, z: 0}
    second:
      serializedVersion: 2
      m_TileIndex: 9
      m_TileSpriteIndex: 9
      m_TileMatrixIndex: 0
      m_TileColorIndex: 0
      m_TileObjectToInstantiateIndex: 65535
      dummyAlignment: 0
      m_AllTileFlags: 1073741825
  - first: {x: 2, y: 0, z: 0}
    second:
      serializedVersion: 2
      m_TileIndex: 10
      m_TileSpriteIndex: 10
      m_TileMatrixIndex: 0
      m_TileColorIndex: 0
      m_TileObjectToInstantiateIndex: 65535
      dummyAlignment: 0
      m_AllTileFlags: 1073741825
  - first: {x: 3, y: 0, z: 0}
    second:
      serializedVersion: 2
      m_TileIndex: 11
      m_TileSpriteIndex: 11
      m_TileMatrixIndex: 0
      m_TileColorIndex: 0
      m_TileObjectToInstantiateIndex: 65535
      dummyAlignment: 0
      m_AllTileFlags: 1073741825
  - first: {x: -2, y: 1, z: 0}
    second:
      serializedVersion: 2
      m_TileIndex: 0
      m_TileSpriteIndex: 0
      m_TileMatrixIndex: 0
      m_TileColorIndex: 0
      m_TileObjectToInstantiateIndex: 65535
      dummyAlignment: 0
      m_AllTileFlags: 1073741825
  - first: {x: -1, y: 1, z: 0}
    second:
      serializedVersion: 2
      m_TileIndex: 1
      m_TileSpriteIndex: 1
      m_TileMatrixIndex: 0
      m_TileColorIndex: 0
      m_TileObjectToInstantiateIndex: 65535
      dummyAlignment: 0
      m_AllTileFlags: 1073741825
  - first: {x: 0, y: 1, z: 0}
    second:
      serializedVersion: 2
      m_TileIndex: 2
      m_TileSpriteIndex: 2
      m_TileMatrixIndex: 0
      m_TileColorIndex: 0
      m_TileObjectToInstantiateIndex: 65535
      dummyAlignment: 0
      m_AllTileFlags: 1073741825
  - first: {x: 1, y: 1, z: 0}
    second:
      serializedVersion: 2
      m_TileIndex: 3
      m_TileSpriteIndex: 3
      m_TileMatrixIndex: 0
      m_TileColorIndex: 0
      m_TileObjectToInstantiateIndex: 65535
      dummyAlignment: 0
      m_AllTileFlags: 1073741825
  - first: {x: 2, y: 1, z: 0}
    second:
      serializedVersion: 2
      m_TileIndex: 4
      m_TileSpriteIndex: 4
      m_TileMatrixIndex: 0
      m_TileColorIndex: 0
      m_TileObjectToInstantiateIndex: 65535
      dummyAlignment: 0
      m_AllTileFlags: 1073741825
  - first: {x: 3, y: 1, z: 0}
    second:
      serializedVersion: 2
      m_TileIndex: 5
      m_TileSpriteIndex: 5
      m_TileMatrixIndex: 0
      m_TileColorIndex: 0
      m_TileObjectToInstantiateIndex: 65535
      dummyAlignment: 0
      m_AllTileFlags: 1073741825
  m_AnimatedTiles: {}
  m_TileAssetArray:
  - m_RefCount: 1
    m_Data: {fileID: 11400000, guid: f34b348c29e318a4d84b1de02e2091e2, type: 2}
  - m_RefCount: 1
    m_Data: {fileID: 11400000, guid: ea216173748673e46bc08a14f3ff27e2, type: 2}
  - m_RefCount: 1
    m_Data: {fileID: 11400000, guid: 04dbce29a76dc224ea54fadad309408d, type: 2}
  - m_RefCount: 1
    m_Data: {fileID: 11400000, guid: 6e18b99bebbc9134da1bb6366a6fe34a, type: 2}
  - m_RefCount: 1
    m_Data: {fileID: 11400000, guid: 5139674b26bf8ed4ba78209335835b1e, type: 2}
  - m_RefCount: 1
    m_Data: {fileID: 11400000, guid: fef11cd310d04a248b139210240ec9e3, type: 2}
  - m_RefCount: 1
    m_Data: {fileID: 11400000, guid: 33e45ae288f29ac46902296f3e85334a, type: 2}
  - m_RefCount: 1
    m_Data: {fileID: 11400000, guid: 2adeca47845901440a0edb5b7b8ad487, type: 2}
  - m_RefCount: 1
    m_Data: {fileID: 11400000, guid: 87f943b32c57f784ca6327fed8a49f2f, type: 2}
  - m_RefCount: 1
    m_Data: {fileID: 11400000, guid: ffc4d0bea70f80849b3aa2159782b748, type: 2}
  - m_RefCount: 1
    m_Data: {fileID: 11400000, guid: 64fcaa3fce2e5ae4783ea25e9b9d856d, type: 2}
  - m_RefCount: 1
    m_Data: {fileID: 11400000, guid: a8ffd8e6060b30b438edbfe3fe1edbcb, type: 2}
  - m_RefCount: 1
    m_Data: {fileID: 11400000, guid: d1f99731e37e579459c8d52eba1dbe90, type: 2}
  - m_RefCount: 1
    m_Data: {fileID: 11400000, guid: 47f26af2bba091344b0d1ccec87b15cb, type: 2}
  - m_RefCount: 1
    m_Data: {fileID: 11400000, guid: c1d28e0810cee3841a1e140ee8275d3a, type: 2}
  - m_RefCount: 1
    m_Data: {fileID: 11400000, guid: da1c66a5a38531f46818c12ea69cb442, type: 2}
  - m_RefCount: 1
    m_Data: {fileID: 11400000, guid: 31bed7a47d1c2f24a954a6c43edd0ed7, type: 2}
  - m_RefCount: 1
    m_Data: {fileID: 11400000, guid: 4eadae3fe7bad084faf3d77962894b1e, type: 2}
  - m_RefCount: 1
    m_Data: {fileID: 11400000, guid: 01b5c7d293eb42646a6086060638a4c5, type: 2}
  - m_RefCount: 1
    m_Data: {fileID: 11400000, guid: 0dd82574e57391d4a96b1aa89e06b917, type: 2}
  - m_RefCount: 1
    m_Data: {fileID: 11400000, guid: 6a489d590594cce4abc6a13caab06af5, type: 2}
  m_TileSpriteArray:
  - m_RefCount: 1
    m_Data: {fileID: 5663061954668274717, guid: 9c4b672d8dc2e4f43975dac79e725cd7, type: 3}
  - m_RefCount: 1
    m_Data: {fileID: 6007627129536956325, guid: 9c4b672d8dc2e4f43975dac79e725cd7, type: 3}
  - m_RefCount: 1
    m_Data: {fileID: -7486092956772349302, guid: 9c4b672d8dc2e4f43975dac79e725cd7, type: 3}
  - m_RefCount: 1
    m_Data: {fileID: -3627264120405484348, guid: 9c4b672d8dc2e4f43975dac79e725cd7, type: 3}
  - m_RefCount: 1
    m_Data: {fileID: -4815885190406460031, guid: 9c4b672d8dc2e4f43975dac79e725cd7, type: 3}
  - m_RefCount: 1
    m_Data: {fileID: 7477116942032994148, guid: 9c4b672d8dc2e4f43975dac79e725cd7, type: 3}
  - m_RefCount: 1
    m_Data: {fileID: -396035294860175646, guid: 9c4b672d8dc2e4f43975dac79e725cd7, type: 3}
  - m_RefCount: 1
    m_Data: {fileID: 8233071653059976297, guid: 9c4b672d8dc2e4f43975dac79e725cd7, type: 3}
  - m_RefCount: 1
    m_Data: {fileID: -7775419718026629507, guid: 9c4b672d8dc2e4f43975dac79e725cd7, type: 3}
  - m_RefCount: 1
    m_Data: {fileID: -781294158744790408, guid: 9c4b672d8dc2e4f43975dac79e725cd7, type: 3}
  - m_RefCount: 1
    m_Data: {fileID: 9061651696941551919, guid: 9c4b672d8dc2e4f43975dac79e725cd7, type: 3}
  - m_RefCount: 1
    m_Data: {fileID: -6985117363303071740, guid: 9c4b672d8dc2e4f43975dac79e725cd7, type: 3}
  - m_RefCount: 1
    m_Data: {fileID: 8642771837104280003, guid: 9c4b672d8dc2e4f43975dac79e725cd7, type: 3}
  - m_RefCount: 1
    m_Data: {fileID: -1762573714345474896, guid: 9c4b672d8dc2e4f43975dac79e725cd7, type: 3}
  - m_RefCount: 1
    m_Data: {fileID: 11442893378838041, guid: 9c4b672d8dc2e4f43975dac79e725cd7, type: 3}
  - m_RefCount: 1
    m_Data: {fileID: -317771678647371661, guid: 9c4b672d8dc2e4f43975dac79e725cd7, type: 3}
  - m_RefCount: 1
    m_Data: {fileID: -2426843357703420916, guid: 9c4b672d8dc2e4f43975dac79e725cd7, type: 3}
  - m_RefCount: 1
    m_Data: {fileID: -3642208251427772964, guid: 9c4b672d8dc2e4f43975dac79e725cd7, type: 3}
  - m_RefCount: 1
    m_Data: {fileID: 3985221016008397036, guid: 9c4b672d8dc2e4f43975dac79e725cd7, type: 3}
  - m_RefCount: 1
    m_Data: {fileID: 5778961287088506303, guid: 9c4b672d8dc2e4f43975dac79e725cd7, type: 3}
  - m_RefCount: 1
    m_Data: {fileID: 8758155216525550727, guid: 9c4b672d8dc2e4f43975dac79e725cd7, type: 3}
  m_TileMatrixArray:
  - m_RefCount: 21
    m_Data:
      e00: 1
      e01: 0
      e02: 0
      e03: 0
      e10: 0
      e11: 1
      e12: 0
      e13: 0
      e20: 0
      e21: 0
      e22: 1
      e23: 0
      e30: 0
      e31: 0
      e32: 0
      e33: 1
  m_TileColorArray:
  - m_RefCount: 21
    m_Data: {r: 1, g: 1, b: 1, a: 1}
  m_TileObjectToInstantiateArray: []
  m_AnimationFrameRate: 1
  m_Color: {r: 1, g: 1, b: 1, a: 1}
  m_Origin: {x: -2, y: -2, z: 0}
  m_Size: {x: 6, y: 4, z: 1}
  m_TileAnchor: {x: 0.5, y: 0.5, z: 0}
  m_TileOrientation: 0
  m_TileOrientationMatrix:
    e00: 1
    e01: 0
    e02: 0
    e03: 0
    e10: 0
    e11: 1
    e12: 0
    e13: 0
    e20: 0
    e21: 0
    e22: 1
    e23: 0
    e30: 0
    e31: 0
    e32: 0
    e33: 1
--- !u!483693784 &3413690177640208474
TilemapRenderer:
  m_ObjectHideFlags: 0
  m_CorrespondingSourceObject: {fileID: 0}
  m_PrefabInstance: {fileID: 0}
  m_PrefabAsset: {fileID: 0}
  m_GameObject: {fileID: 2945903225281667281}
  m_Enabled: 1
  m_CastShadows: 0
  m_ReceiveShadows: 0
  m_DynamicOccludee: 0
  m_MotionVectors: 1
  m_LightProbeUsage: 0
  m_ReflectionProbeUsage: 0
  m_RayTracingMode: 0
  m_RayTraceProcedural: 0
  m_RenderingLayerMask: 1
  m_RendererPriority: 0
  m_Materials:
  - {fileID: 10754, guid: 0000000000000000f000000000000000, type: 0}
  m_StaticBatchInfo:
    firstSubMesh: 0
    subMeshCount: 0
  m_StaticBatchRoot: {fileID: 0}
  m_ProbeAnchor: {fileID: 0}
  m_LightProbeVolumeOverride: {fileID: 0}
  m_ScaleInLightmap: 1
  m_ReceiveGI: 1
  m_PreserveUVs: 0
  m_IgnoreNormalsForChartDetection: 0
  m_ImportantGI: 0
  m_StitchLightmapSeams: 1
  m_SelectedEditorRenderState: 0
  m_MinimumChartSize: 4
  m_AutoUVMaxDistance: 0.5
  m_AutoUVMaxAngle: 89
  m_LightmapParameters: {fileID: 0}
  m_SortingLayerID: 0
  m_SortingLayer: 0
  m_SortingOrder: 0
  m_ChunkSize: {x: 32, y: 32, z: 32}
  m_ChunkCullingBounds: {x: 0, y: 0, z: 0}
  m_MaxChunkCount: 16
  m_MaxFrameAge: 16
  m_SortOrder: 0
  m_Mode: 0
  m_DetectChunkCullingBounds: 0
  m_MaskInteraction: 0
--- !u!1 &3010703878426210377
GameObject:
  m_ObjectHideFlags: 0
  m_CorrespondingSourceObject: {fileID: 0}
  m_PrefabInstance: {fileID: 0}
  m_PrefabAsset: {fileID: 0}
  serializedVersion: 6
  m_Component:
  - component: {fileID: 6343147746561904096}
  - component: {fileID: 8601080130038641684}
  m_Layer: 31
  m_Name: Tile
  m_TagString: Untagged
  m_Icon: {fileID: 0}
  m_NavMeshLayer: 0
  m_StaticEditorFlags: 0
  m_IsActive: 1
--- !u!4 &6343147746561904096
Transform:
  m_ObjectHideFlags: 0
  m_CorrespondingSourceObject: {fileID: 0}
  m_PrefabInstance: {fileID: 0}
  m_PrefabAsset: {fileID: 0}
  m_GameObject: {fileID: 3010703878426210377}
  m_LocalRotation: {x: 0, y: 0, z: 0, w: 1}
  m_LocalPosition: {x: 0, y: 0, z: 0}
  m_LocalScale: {x: 1, y: 1, z: 1}
  m_Children:
  - {fileID: 842742613952638855}
  m_Father: {fileID: 0}
  m_RootOrder: 0
  m_LocalEulerAnglesHint: {x: 0, y: 0, z: 0}
--- !u!156049354 &8601080130038641684
Grid:
  m_ObjectHideFlags: 0
  m_CorrespondingSourceObject: {fileID: 0}
  m_PrefabInstance: {fileID: 0}
  m_PrefabAsset: {fileID: 0}
  m_GameObject: {fileID: 3010703878426210377}
  m_Enabled: 1
  m_CellSize: {x: 1, y: 1, z: 0}
  m_CellGap: {x: 0, y: 0, z: 0}
  m_CellLayout: 0
  m_CellSwizzle: 0
--- !u!114 &1444547383864140085
MonoBehaviour:
  m_ObjectHideFlags: 0
  m_CorrespondingSourceObject: {fileID: 0}
  m_PrefabInstance: {fileID: 0}
  m_PrefabAsset: {fileID: 0}
  m_GameObject: {fileID: 0}
  m_Enabled: 1
  m_EditorHideFlags: 0
  m_Script: {fileID: 12395, guid: 0000000000000000e000000000000000, type: 0}
  m_Name: Palette Settings
  m_EditorClassIdentifier: 
  cellSizing: 0
  m_TransparencySortMode: 0
  m_TransparencySortAxis: {x: 0, y: 0, z: 1}
